Predator-Prey · Agents.jl
…
sheep(a) = typeof(a) == Sheep
wolves(a) = typeof(a) == Wolf
grass(a) = typeof(a) == Grass && a.fully_grown
adata = [(sheep, count), (wolves, count), (grass, count)]
results, _ = run!(model, agent_step!, n_steps; adata)

(501×4 DataFrame
 Row │ step   count_sheep  count_wolves  count_grass
     │ Int64  Int64        Int64         Int64
─────┼───────────────────────────────────────────────
   1 │     0          100            50          203
   2 │     1           82            56          165
   3 │     2           74            57          138
   4 │     3           68            59          132
   5 │     4           57            63          120
   6 │     5           50            64          110
   7 │     6           38            67          109
   8 │     7           34            70          113
  ⋮  │   ⋮         ⋮            ⋮             ⋮
 495 │   494           40             0          138
 496 │   495           38             0          141
 497 │   496           38             0          141
 498 │   497           39             0          143
 499 │   498           39             0          145
 500 │   499           38             0          137
 501 │   500           39             0          147
                                     486 rows omitted, 0×0 DataFrame)
…
